%YAML 1.1
%TAG !u! tag:unity3d.com,2011:
--- !u!1 &100000
GameObject:
  m_ObjectHideFlags: 0
  m_PrefabParentObject: {fileID: 0}
  m_PrefabInternal: {fileID: 100100000}
  serializedVersion: 4
  m_Component:
  - 4: {fileID: 400000}
  - 33: {fileID: 3300000}
  - 23: {fileID: 2300000}
  - 114: {fileID: 11400000}
  m_Layer: 0
  m_Name: dragon
  m_TagString: Untagged
  m_Icon: {fileID: 0}
  m_NavMeshLayer: 0
  m_StaticEditorFlags: 0
  m_IsActive: 1
--- !u!4 &400000
Transform:
  m_ObjectHideFlags: 1
  m_PrefabParentObject: {fileID: 0}
  m_PrefabInternal: {fileID: 100100000}
  m_GameObject: {fileID: 100000}
  m_LocalRotation: {x: 0, y: 0, z: 0, w: 1}
  m_LocalPosition: {x: 0, y: 0, z: 0}
  m_LocalScale: {x: 1, y: 1, z: 1}
  m_LocalEulerAnglesHint: {x: 0, y: 0, z: 0}
  m_Children: []
  m_Father: {fileID: 0}
  m_RootOrder: 0
--- !u!23 &2300000
MeshRenderer:
  m_ObjectHideFlags: 1
  m_PrefabParentObject: {fileID: 0}
  m_PrefabInternal: {fileID: 100100000}
  m_GameObject: {fileID: 100000}
  m_Enabled: 1
  m_CastShadows: 1
  m_ReceiveShadows: 1
  m_Materials:
  - {fileID: 2100000, guid: d58543c96f991934ca874395eb40222c, type: 2}
  - {fileID: 2100000, guid: 3277fd5561d95724e83c6ca4a1dd28a4, type: 2}
  - {fileID: 2100000, guid: d58543c96f991934ca874395eb40222c, type: 2}
  - {fileID: 2100000, guid: 3277fd5561d95724e83c6ca4a1dd28a4, type: 2}
  - {fileID: 2100000, guid: d58543c96f991934ca874395eb40222c, type: 2}
  - {fileID: 2100000, guid: 3277fd5561d95724e83c6ca4a1dd28a4, type: 2}
  - {fileID: 2100000, guid: d58543c96f991934ca874395eb40222c, type: 2}
  - {fileID: 2100000, guid: 3277fd5561d95724e83c6ca4a1dd28a4, type: 2}
  - {fileID: 2100000, guid: d58543c96f991934ca874395eb40222c, type: 2}
  - {fileID: 2100000, guid: 3277fd5561d95724e83c6ca4a1dd28a4, type: 2}
  - {fileID: 2100000, guid: d58543c96f991934ca874395eb40222c, type: 2}
  - {fileID: 2100000, guid: 3277fd5561d95724e83c6ca4a1dd28a4, type: 2}
  m_SubsetIndices: 
  m_StaticBatchRoot: {fileID: 0}
  m_UseLightProbes: 0
  m_ReflectionProbeUsage: 1
  m_ProbeAnchor: {fileID: 0}
  m_ScaleInLightmap: 1
  m_PreserveUVs: 0
  m_IgnoreNormalsForChartDetection: 0
  m_ImportantGI: 0
  m_MinimumChartSize: 4
  m_AutoUVMaxDistance: 0.5
  m_AutoUVMaxAngle: 89
  m_LightmapParameters: {fileID: 0}
  m_SortingLayerID: 0
  m_SortingOrder: 0
--- !u!33 &3300000
MeshFilter:
  m_ObjectHideFlags: 1
  m_PrefabParentObject: {fileID: 0}
  m_PrefabInternal: {fileID: 100100000}
  m_GameObject: {fileID: 100000}
  m_Mesh: {fileID: 0}
--- !u!114 &11400000
MonoBehaviour:
  m_ObjectHideFlags: 1
  m_PrefabParentObject: {fileID: 0}
  m_PrefabInternal: {fileID: 100100000}
  m_GameObject: {fileID: 100000}
  m_Enabled: 1
  m_EditorHideFlags: 0
  m_Script: {fileID: 11500000, guid: d247ba06193faa74d9335f5481b2b56c, type: 3}
  m_Name: 
  m_EditorClassIdentifier: 
  skeletonDataAsset: {fileID: 11400000, guid: 76506fa7fbeed084ab2dfb084648c628, type: 2}
  initialSkinName: default
  separatorSlotNames: []
  zSpacing: 0
  renderMeshes: 1
  immutableTriangles: 0
  pmaVertexColors: 1
  calculateNormals: 0
  calculateTangents: 0
  frontFacing: 0
  logErrors: 0
  disableRenderingOnOverride: 1
  _animationName: flying
  loop: 1
  timeScale: 1
--- !u!1001 &100100000
Prefab:
  m_ObjectHideFlags: 1
  serializedVersion: 2
  m_Modification:
    m_TransformParent: {fileID: 0}
    m_Modifications: []
    m_RemovedComponents: []
  m_ParentPrefab: {fileID: 0}
  m_RootGameObject: {fileID: 100000}
  m_IsPrefabParent: 1
