%YAML 1.1
%TAG !u! tag:unity3d.com,2011:
--- !u!74 &7400000
AnimationClip:
  m_ObjectHideFlags: 0
  m_PrefabParentObject: {fileID: 0}
  m_PrefabInternal: {fileID: 0}
  m_Name: Options Animations
  serializedVersion: 6
  m_Legacy: 0
  m_Compressed: 0
  m_UseHighQualityCurve: 1
  m_RotationCurves: []
  m_CompressedRotationCurves: []
  m_EulerCurves:
  - curve:
      serializedVersion: 2
      m_Curve:
      - time: 0
        value: {x: -0, y: 0, z: 0}
        inSlope: {x: 0, y: 0, z: 0}
        outSlope: {x: 0, y: 0, z: 0}
        tangentMode: 0
      - time: 0.25
        value: {x: 0, y: 0, z: 0}
        inSlope: {x: 0, y: 0, z: Infinity}
        outSlope: {x: 0, y: 0, z: 28.500002}
        tangentMode: 0
      - time: 0.33333334
        value: {x: 0, y: 0, z: 4.289051}
        inSlope: {x: -0, y: 0, z: 9.048393}
        outSlope: {x: -0, y: 0, z: 9.048393}
        tangentMode: 0
      - time: 0.5
        value: {x: -0, y: 0, z: -1.2729182}
        inSlope: {x: 0, y: 0, z: -9.048398}
        outSlope: {x: 0, y: 0, z: -9.048398}
        tangentMode: 0
      - time: 0.5833333
        value: {x: -0, y: 0, z: 0}
        inSlope: {x: 0, y: 0, z: 15.2750225}
        outSlope: {x: 0, y: 0, z: 15.2750225}
        tangentMode: 0
      m_PreInfinity: 2
      m_PostInfinity: 2
      m_RotationOrder: 4
    path: 
  m_PositionCurves: []
  m_ScaleCurves: []
  m_FloatCurves:
  - curve:
      serializedVersion: 2
      m_Curve:
      - time: 0
        value: -100
        inSlope: 467.65402
        outSlope: 467.65402
        tangentMode: 10
      - time: 0.25
        value: 16.913506
        inSlope: 117.39992
        outSlope: 117.39992
        tangentMode: 10
      - time: 0.41666666
        value: -21.895525
        inSlope: -50.740517
        outSlope: -50.740517
        tangentMode: 10
      - time: 0.5833333
        value: 0
        inSlope: 131.37315
        outSlope: 131.37315
        tangentMode: 10
      m_PreInfinity: 2
      m_PostInfinity: 2
      m_RotationOrder: 4
    attribute: m_AnchoredPosition.y
    path: 
    classID: 224
    script: {fileID: 0}
  - curve:
      serializedVersion: 2
      m_Curve:
      - time: 0
        value: 0
        inSlope: 2
        outSlope: 2
        tangentMode: 10
      - time: 0.25
        value: 0.5
        inSlope: 1
        outSlope: 1
        tangentMode: 10
      - time: 0.41666666
        value: 0.5
        inSlope: 0
        outSlope: 0
        tangentMode: 10
      - time: 0.5833333
        value: 0.5
        inSlope: 0
        outSlope: 0
        tangentMode: 10
      m_PreInfinity: 2
      m_PostInfinity: 2
      m_RotationOrder: 4
    attribute: m_AnchorMin.y
    path: 
    classID: 224
    script: {fileID: 0}
  - curve:
      serializedVersion: 2
      m_Curve:
      - time: 0
        value: 0
        inSlope: 2
        outSlope: 2
        tangentMode: 10
      - time: 0.25
        value: 0.5
        inSlope: 1
        outSlope: 1
        tangentMode: 10
      - time: 0.41666666
        value: 0.5
        inSlope: 0
        outSlope: 0
        tangentMode: 10
      - time: 0.5833333
        value: 0.5
        inSlope: 0
        outSlope: 0
        tangentMode: 10
      m_PreInfinity: 2
      m_PostInfinity: 2
      m_RotationOrder: 4
    attribute: m_AnchorMax.y
    path: 
    classID: 224
    script: {fileID: 0}
  - curve:
      serializedVersion: 2
      m_Curve:
      - time: 0
        value: 1
        inSlope: -2
        outSlope: -2
        tangentMode: 10
      - time: 0.25
        value: 0.5
        inSlope: -1
        outSlope: -1
        tangentMode: 10
      - time: 0.41666666
        value: 0.5
        inSlope: 0
        outSlope: 0
        tangentMode: 10
      - time: 0.5833333
        value: 0.5
        inSlope: 0
        outSlope: 0
        tangentMode: 10
      m_PreInfinity: 2
      m_PostInfinity: 2
      m_RotationOrder: 4
    attribute: m_Pivot.y
    path: 
    classID: 224
    script: {fileID: 0}
  - curve:
      serializedVersion: 2
      m_Curve:
      - time: 0
        value: 0
        inSlope: Infinity
        outSlope: 5.999997
        tangentMode: 7
      - time: 0.5
        value: 0
        inSlope: Infinity
        outSlope: 5.999997
        tangentMode: 7
      - time: 0.6666667
        value: 1
        inSlope: 5.9999995
        outSlope: 5.9999995
        tangentMode: 10
      m_PreInfinity: 2
      m_PostInfinity: 2
      m_RotationOrder: 4
    attribute: m_Color.a
    path: Info Text
    classID: 114
    script: {fileID: 708705254, guid: f5f67c52d1564df4a8936ccd202a3bd8, type: 3}
  m_PPtrCurves: []
  m_SampleRate: 60
  m_WrapMode: 0
  m_Bounds:
    m_Center: {x: 0, y: 0, z: 0}
    m_Extent: {x: 0, y: 0, z: 0}
  m_ClipBindingConstant:
    genericBindings:
    - path: 0
      attribute: 4
      script: {fileID: 0}
      classID: 4
      customType: 14
      isPPtrCurve: 0
    - path: 0
      attribute: 538195251
      script: {fileID: 0}
      classID: 224
      customType: 0
      isPPtrCurve: 0
    - path: 0
      attribute: 193093493
      script: {fileID: 0}
      classID: 224
      customType: 0
      isPPtrCurve: 0
    - path: 0
      attribute: 3600656472
      script: {fileID: 0}
      classID: 224
      customType: 0
      isPPtrCurve: 0
    - path: 0
      attribute: 2952582672
      script: {fileID: 0}
      classID: 224
      customType: 0
      isPPtrCurve: 0
    - path: 1000419274
      attribute: 304273561
      script: {fileID: 708705254, guid: f5f67c52d1564df4a8936ccd202a3bd8, type: 3}
      classID: 114
      customType: 0
      isPPtrCurve: 0
    pptrCurveMapping: []
  m_AnimationClipSettings:
    serializedVersion: 2
    m_AdditiveReferencePoseClip: {fileID: 0}
    m_AdditiveReferencePoseTime: 0
    m_StartTime: 0
    m_StopTime: 0.6666667
    m_OrientationOffsetY: 0
    m_Level: 0
    m_CycleOffset: 0
    m_HasAdditiveReferencePose: 0
    m_LoopTime: 0
    m_LoopBlend: 0
    m_LoopBlendOrientation: 0
    m_LoopBlendPositionY: 0
    m_LoopBlendPositionXZ: 0
    m_KeepOriginalOrientation: 0
    m_KeepOriginalPositionY: 1
    m_KeepOriginalPositionXZ: 0
    m_HeightFromFeet: 0
    m_Mirror: 0
  m_EditorCurves:
  - curve:
      serializedVersion: 2
      m_Curve:
      - time: 0
        value: -100
        inSlope: 467.65402
        outSlope: 467.65402
        tangentMode: 10
      - time: 0.25
        value: 16.913506
        inSlope: 117.39992
        outSlope: 117.39992
        tangentMode: 10
      - time: 0.41666666
        value: -21.895525
        inSlope: -50.740517
        outSlope: -50.740517
        tangentMode: 10
      - time: 0.5833333
        value: 0
        inSlope: 131.37315
        outSlope: 131.37315
        tangentMode: 10
      m_PreInfinity: 2
      m_PostInfinity: 2
      m_RotationOrder: 4
    attribute: m_AnchoredPosition.y
    path: 
    classID: 224
    script: {fileID: 0}
  - curve:
      serializedVersion: 2
      m_Curve:
      - time: 0
        value: 0
        inSlope: 2
        outSlope: 2
        tangentMode: 10
      - time: 0.25
        value: 0.5
        inSlope: 1
        outSlope: 1
        tangentMode: 10
      - time: 0.41666666
        value: 0.5
        inSlope: 0
        outSlope: 0
        tangentMode: 10
      - time: 0.5833333
        value: 0.5
        inSlope: 0
        outSlope: 0
        tangentMode: 10
      m_PreInfinity: 2
      m_PostInfinity: 2
      m_RotationOrder: 4
    attribute: m_AnchorMin.y
    path: 
    classID: 224
    script: {fileID: 0}
  - curve:
      serializedVersion: 2
      m_Curve:
      - time: 0
        value: 0
        inSlope: 2
        outSlope: 2
        tangentMode: 10
      - time: 0.25
        value: 0.5
        inSlope: 1
        outSlope: 1
        tangentMode: 10
      - time: 0.41666666
        value: 0.5
        inSlope: 0
        outSlope: 0
        tangentMode: 10
      - time: 0.5833333
        value: 0.5
        inSlope: 0
        outSlope: 0
        tangentMode: 10
      m_PreInfinity: 2
      m_PostInfinity: 2
      m_RotationOrder: 4
    attribute: m_AnchorMax.y
    path: 
    classID: 224
    script: {fileID: 0}
  - curve:
      serializedVersion: 2
      m_Curve:
      - time: 0
        value: 1
        inSlope: -2
        outSlope: -2
        tangentMode: 10
      - time: 0.25
        value: 0.5
        inSlope: -1
        outSlope: -1
        tangentMode: 10
      - time: 0.41666666
        value: 0.5
        inSlope: 0
        outSlope: 0
        tangentMode: 10
      - time: 0.5833333
        value: 0.5
        inSlope: 0
        outSlope: 0
        tangentMode: 10
      m_PreInfinity: 2
      m_PostInfinity: 2
      m_RotationOrder: 4
    attribute: m_Pivot.y
    path: 
    classID: 224
    script: {fileID: 0}
  - curve:
      serializedVersion: 2
      m_Curve:
      - time: 0
        value: 0
        inSlope: Infinity
        outSlope: 5.999997
        tangentMode: 7
      - time: 0.5
        value: 0
        inSlope: Infinity
        outSlope: 5.999997
        tangentMode: 7
      - time: 0.6666667
        value: 1
        inSlope: 5.9999995
        outSlope: 5.9999995
        tangentMode: 10
      m_PreInfinity: 2
      m_PostInfinity: 2
      m_RotationOrder: 4
    attribute: m_Color.a
    path: Info Text
    classID: 114
    script: {fileID: 708705254, guid: f5f67c52d1564df4a8936ccd202a3bd8, type: 3}
  - curve:
      serializedVersion: 2
      m_Curve:
      - time: 0
        value: -0
        inSlope: 0
        outSlope: 0
        tangentMode: 10
      - time: 0.5
        value: -0
        inSlope: 0
        outSlope: 0
        tangentMode: 10
      m_PreInfinity: 2
      m_PostInfinity: 2
      m_RotationOrder: 4
    attribute: localEulerAnglesRaw.x
    path: 
    classID: 224
    script: {fileID: 0}
  - curve:
      serializedVersion: 2
      m_Curve:
      - time: 0
        value: 0
        inSlope: 0
        outSlope: 0
        tangentMode: 10
      - time: 0.5
        value: 0
        inSlope: 0
        outSlope: 0
        tangentMode: 10
      m_PreInfinity: 2
      m_PostInfinity: 2
      m_RotationOrder: 4
    attribute: localEulerAnglesRaw.y
    path: 
    classID: 224
    script: {fileID: 0}
  - curve:
      serializedVersion: 2
      m_Curve:
      - time: 0
        value: 0
        inSlope: 0
        outSlope: 0
        tangentMode: 10
      - time: 0.25
        value: 0
        inSlope: Infinity
        outSlope: 28.500002
        tangentMode: 7
      - time: 0.33333334
        value: 4.289051
        inSlope: 9.048393
        outSlope: 9.048393
        tangentMode: 10
      - time: 0.5
        value: -1.2729182
        inSlope: -9.048398
        outSlope: -9.048398
        tangentMode: 10
      - time: 0.5833333
        value: 0
        inSlope: 15.2750225
        outSlope: 15.2750225
        tangentMode: 10
      m_PreInfinity: 2
      m_PostInfinity: 2
      m_RotationOrder: 4
    attribute: localEulerAnglesRaw.z
    path: 
    classID: 224
    script: {fileID: 0}
  m_EulerEditorCurves:
  - curve:
      serializedVersion: 2
      m_Curve: []
      m_PreInfinity: 2
      m_PostInfinity: 2
      m_RotationOrder: 4
    attribute: m_LocalEulerAngles.x
    path: 
    classID: 224
    script: {fileID: 0}
  - curve:
      serializedVersion: 2
      m_Curve: []
      m_PreInfinity: 2
      m_PostInfinity: 2
      m_RotationOrder: 4
    attribute: m_LocalEulerAngles.y
    path: 
    classID: 224
    script: {fileID: 0}
  - curve:
      serializedVersion: 2
      m_Curve: []
      m_PreInfinity: 2
      m_PostInfinity: 2
      m_RotationOrder: 4
    attribute: m_LocalEulerAngles.z
    path: 
    classID: 224
    script: {fileID: 0}
  m_HasGenericRootTransform: 1
  m_HasMotionFloatCurves: 0
  m_GenerateMotionCurves: 0
  m_Events: []
